info face="NovaSquare-Regular" size=42 bold=0 italic=0 charset="" unicode=1 stretchH=100 smooth=1 aa=1 padding=1,1,1,1 spacing=0,0 outline=0
common lineHeight=51 base=41 scaleW=512 scaleH=256 pages=1 packed=0 alphaChnl=0 redChnl=0 greenChnl=0 blueChnl=0
page id=0 file="novasquare-regular.png"
char id=36 x=0 y=0 width=23 height=43 xoffset=2 yoffset=5 xadvance=27 page=0 chnl=15
char id=40 x=0 y=45 width=12 height=43 xoffset=3 yoffset=5 xadvance=15 page=0 chnl=15
char id=41 x=0 y=90 width=12 height=43 xoffset=0 yoffset=5 xadvance=15 page=0 chnl=15
char id=91 x=0 y=135 width=15 height=43 xoffset=3 yoffset=5 xadvance=18 page=0 chnl=15
char id=93 x=0 y=180 width=15 height=43 xoffset=0 yoffset=5 xadvance=18 page=0 chnl=15
char id=123 x=14 y=45 width=17 height=43 xoffset=0 yoffset=5 xadvance=17 page=0 chnl=15
char id=124 x=25 y=0 width=5 height=43 xoffset=4 yoffset=5 xadvance=14 page=0 chnl=15
char id=125 x=14 y=90 width=17 height=43 xoffset=0 yoffset=5 xadvance=17 page=0 chnl=15
char id=106 x=32 y=0 width=11 height=42 xoffset=-1 yoffset=10 xadvance=12 page=0 chnl=15
char id=37 x=17 y=135 width=40 height=35 xoffset=2 yoffset=9 xadvance=44 page=0 chnl=15
char id=47 x=17 y=172 width=22 height=39 xoffset=-1 yoffset=7 xadvance=20 page=0 chnl=15
char id=77 x=17 y=213 width=39 height=34 xoffset=3 yoffset=10 xadvance=46 page=0 chnl=15
char id=87 x=41 y=172 width=39 height=34 xoffset=3 yoffset=9 xadvance=46 page=0 chnl=15
char id=92 x=58 y=208 width=22 height=39 xoffset=-1 yoffset=7 xadvance=20 page=0 chnl=15
char id=49 x=33 y=44 width=11 height=35 xoffset=-1 yoffset=9 xadvance=15 page=0 chnl=15
char id=52 x=45 y=0 width=24 height=35 xoffset=-1 yoffset=9 xadvance=24 page=0 chnl=15
char id=72 x=33 y=81 width=22 height=35 xoffset=3 yoffset=9 xadvance=29 page=0 chnl=15
char id=73 x=46 y=37 width=6 height=35 xoffset=3 yoffset=9 xadvance=12 page=0 chnl=15
char id=75 x=54 y=37 width=22 height=35 xoffset=3 yoffset=9 xadvance=28 page=0 chnl=15
char id=86 x=71 y=0 width=26 height=35 xoffset=-1 yoffset=9 xadvance=24 page=0 chnl=15
char id=88 x=57 y=74 width=24 height=35 xoffset=1 yoffset=9 xadvance=26 page=0 chnl=15
char id=89 x=78 y=37 width=23 height=35 xoffset=2 yoffset=9 xadvance=27 page=0 chnl=15
char id=104 x=99 y=0 width=19 height=35 xoffset=3 yoffset=9 xadvance=24 page=0 chnl=15
char id=107 x=59 y=111 width=19 height=35 xoffset=3 yoffset=9 xadvance=24 page=0 chnl=15
char id=108 x=80 y=111 width=6 height=35 xoffset=3 yoffset=9 xadvance=12 page=0 chnl=15
char id=116 x=83 y=74 width=17 height=35 xoffset=0 yoffset=9 xadvance=16 page=0 chnl=15
char id=33 x=82 y=148 width=7 height=34 xoffset=3 yoffset=9 xadvance=12 page=0 chnl=15
char id=38 x=88 y=111 width=31 height=34 xoffset=2 yoffset=10 xadvance=35 page=0 chnl=15
char id=55 x=102 y=74 width=21 height=34 xoffset=0 yoffset=10 xadvance=21 page=0 chnl=15
char id=65 x=103 y=37 width=23 height=34 xoffset=3 yoffset=10 xadvance=29 page=0 chnl=15
char id=70 x=120 y=0 width=17 height=34 xoffset=3 yoffset=10 xadvance=23 page=0 chnl=15
char id=76 x=82 y=184 width=20 height=34 xoffset=3 yoffset=9 xadvance=22 page=0 chnl=15
char id=78 x=91 y=147 width=23 height=34 xoffset=3 yoffset=10 xadvance=29 page=0 chnl=15
char id=80 x=82 y=220 width=22 height=34 xoffset=3 yoffset=10 xadvance=27 page=0 chnl=15
char id=81 x=104 y=183 width=23 height=34 xoffset=3 yoffset=10 xadvance=29 page=0 chnl=15
char id=82 x=116 y=147 width=23 height=34 xoffset=3 yoffset=10 xadvance=28 page=0 chnl=15
char id=84 x=121 y=110 width=24 height=34 xoffset=-1 yoffset=10 xadvance=22 page=0 chnl=15
char id=85 x=125 y=73 width=23 height=34 xoffset=3 yoffset=9 xadvance=29 page=0 chnl=15
char id=98 x=128 y=36 width=19 height=34 xoffset=3 yoffset=9 xadvance=24 page=0 chnl=15
char id=100 x=139 y=0 width=19 height=34 xoffset=2 yoffset=9 xadvance=24 page=0 chnl=15
char id=102 x=149 y=36 width=16 height=34 xoffset=0 yoffset=10 xadvance=17 page=0 chnl=15
char id=105 x=160 y=0 width=7 height=34 xoffset=3 yoffset=10 xadvance=12 page=0 chnl=15
char id=112 x=106 y=219 width=19 height=34 xoffset=3 yoffset=18 xadvance=24 page=0 chnl=15
char id=113 x=127 y=219 width=19 height=34 xoffset=2 yoffset=18 xadvance=24 page=0 chnl=15
char id=121 x=129 y=183 width=19 height=34 xoffset=2 yoffset=18 xadvance=24 page=0 chnl=15
char id=48 x=141 y=146 width=23 height=33 xoffset=3 yoffset=10 xadvance=29 page=0 chnl=15
char id=50 x=147 y=109 width=23 height=33 xoffset=2 yoffset=10 xadvance=27 page=0 chnl=15
char id=51 x=150 y=72 width=23 height=33 xoffset=2 yoffset=10 xadvance=27 page=0 chnl=15
char id=53 x=167 y=36 width=23 height=33 xoffset=2 yoffset=10 xadvance=27 page=0 chnl=15
char id=54 x=169 y=0 width=23 height=33 xoffset=3 yoffset=10 xadvance=29 page=0 chnl=15
char id=56 x=148 y=219 width=23 height=33 xoffset=2 yoffset=10 xadvance=27 page=0 chnl=15
char id=57 x=150 y=181 width=23 height=33 xoffset=3 yoffset=10 xadvance=29 page=0 chnl=15
char id=63 x=166 y=144 width=23 height=33 xoffset=2 yoffset=10 xadvance=27 page=0 chnl=15
char id=64 x=172 y=107 width=23 height=33 xoffset=3 yoffset=18 xadvance=28 page=0 chnl=15
char id=66 x=175 y=71 width=22 height=33 xoffset=3 yoffset=10 xadvance=28 page=0 chnl=15
char id=67 x=192 y=35 width=23 height=33 xoffset=3 yoffset=10 xadvance=29 page=0 chnl=15
char id=68 x=194 y=0 width=22 height=33 xoffset=3 yoffset=10 xadvance=29 page=0 chnl=15
char id=69 x=173 y=216 width=21 height=33 xoffset=3 yoffset=10 xadvance=24 page=0 chnl=15
char id=71 x=175 y=179 width=23 height=33 xoffset=3 yoffset=10 xadvance=29 page=0 chnl=15
char id=74 x=191 y=142 width=22 height=33 xoffset=1 yoffset=10 xadvance=26 page=0 chnl=15
char id=79 x=197 y=106 width=23 height=33 xoffset=3 yoffset=10 xadvance=29 page=0 chnl=15
char id=83 x=199 y=70 width=23 height=33 xoffset=2 yoffset=10 xadvance=27 page=0 chnl=15
char id=90 x=217 y=35 width=22 height=33 xoffset=2 yoffset=10 xadvance=26 page=0 chnl=15
char id=103 x=218 y=0 width=19 height=33 xoffset=2 yoffset=18 xadvance=24 page=0 chnl=15
char id=109 x=239 y=0 width=32 height=25 xoffset=2 yoffset=18 xadvance=36 page=0 chnl=15
char id=119 x=196 y=214 width=32 height=25 xoffset=2 yoffset=18 xadvance=36 page=0 chnl=15
char id=59 x=0 y=225 width=8 height=26 xoffset=2 yoffset=23 xadvance=12 page=0 chnl=15
char id=118 x=200 y=177 width=21 height=26 xoffset=0 yoffset=18 xadvance=21 page=0 chnl=15
char id=120 x=215 y=141 width=20 height=26 xoffset=1 yoffset=18 xadvance=21 page=0 chnl=15
char id=97 x=222 y=105 width=19 height=25 xoffset=1 yoffset=18 xadvance=22 page=0 chnl=15
char id=99 x=224 y=70 width=19 height=25 xoffset=2 yoffset=18 xadvance=23 page=0 chnl=15
char id=101 x=241 y=27 width=19 height=25 xoffset=2 yoffset=18 xadvance=23 page=0 chnl=15
char id=110 x=223 y=169 width=19 height=25 xoffset=2 yoffset=18 xadvance=23 page=0 chnl=15
char id=111 x=237 y=132 width=19 height=25 xoffset=2 yoffset=18 xadvance=23 page=0 chnl=15
char id=114 x=243 y=97 width=13 height=25 xoffset=2 yoffset=18 xadvance=15 page=0 chnl=15
char id=115 x=245 y=54 width=19 height=25 xoffset=1 yoffset=18 xadvance=22 page=0 chnl=15
char id=117 x=262 y=27 width=19 height=25 xoffset=2 yoffset=18 xadvance=23 page=0 chnl=15
char id=122 x=273 y=0 width=19 height=25 xoffset=1 yoffset=18 xadvance=22 page=0 chnl=15
char id=35 x=230 y=196 width=24 height=24 xoffset=2 yoffset=15 xadvance=28 page=0 chnl=15
char id=94 x=33 y=118 width=23 height=13 xoffset=2 yoffset=9 xadvance=27 page=0 chnl=15
char id=60 x=230 y=222 width=22 height=21 xoffset=2 yoffset=16 xadvance=27 page=0 chnl=15
char id=62 x=254 y=222 width=22 height=21 xoffset=3 yoffset=16 xadvance=27 page=0 chnl=15
char id=42 x=59 y=148 width=20 height=21 xoffset=2 yoffset=9 xadvance=24 page=0 chnl=15
char id=43 x=244 y=159 width=21 height=21 xoffset=2 yoffset=16 xadvance=25 page=0 chnl=15
char id=45 x=243 y=124 width=21 height=6 xoffset=2 yoffset=24 xadvance=25 page=0 chnl=15
char id=61 x=245 y=81 width=21 height=13 xoffset=2 yoffset=20 xadvance=25 page=0 chnl=15
char id=95 x=10 y=249 width=21 height=6 xoffset=2 yoffset=46 xadvance=25 page=0 chnl=15
char id=58 x=258 y=132 width=7 height=20 xoffset=3 yoffset=23 xadvance=12 page=0 chnl=15
char id=126 x=196 y=245 width=19 height=9 xoffset=2 yoffset=22 xadvance=23 page=0 chnl=15
char id=44 x=217 y=241 width=8 height=14 xoffset=2 yoffset=35 xadvance=12 page=0 chnl=15
char id=34 x=266 y=54 width=11 height=13 xoffset=2 yoffset=9 xadvance=15 page=0 chnl=15
char id=39 x=223 y=196 width=5 height=13 xoffset=2 yoffset=9 xadvance=10 page=0 chnl=15
char id=96 x=266 y=69 width=9 height=10 xoffset=2 yoffset=9 xadvance=13 page=0 chnl=15
char id=46 x=222 y=132 width=7 height=7 xoffset=3 yoffset=36 xadvance=12 page=0 chnl=15
char id=32 x=141 y=181 width=0 height=0 xoffset=-1 yoffset=41 xadvance=16 page=0 chnl=15
kerning first=65 second=84 amount=-3
kerning first=65 second=88 amount=-1
kerning first=65 second=89 amount=-1
kerning first=65 second=118 amount=-1
kerning first=65 second=120 amount=-1
kerning first=65 second=122 amount=-2
kerning first=66 second=84 amount=-3
kerning first=66 second=88 amount=-2
kerning first=66 second=89 amount=-1
kerning first=66 second=118 amount=-1
kerning first=66 second=122 amount=-2
kerning first=67 second=84 amount=-3
kerning first=67 second=88 amount=-1
kerning first=67 second=89 amount=-1
kerning first=67 second=118 amount=-1
kerning first=67 second=120 amount=-1
kerning first=67 second=122 amount=-2
kerning first=68 second=84 amount=-3
kerning first=68 second=88 amount=-2
kerning first=68 second=89 amount=-1
kerning first=68 second=118 amount=-1
kerning first=68 second=120 amount=-1
kerning first=68 second=122 amount=-2
kerning first=69 second=84 amount=-2
kerning first=69 second=88 amount=-1
kerning first=69 second=89 amount=-1
kerning first=69 second=97 amount=-1
kerning first=69 second=99 amount=-1
kerning first=69 second=100 amount=-1
kerning first=69 second=101 amount=-1
kerning first=69 second=103 amount=-1
kerning first=69 second=109 amount=-1
kerning first=69 second=110 amount=-1
kerning first=69 second=111 amount=-1
kerning first=69 second=112 amount=-1
kerning first=69 second=113 amount=-1
kerning first=69 second=114 amount=-1
kerning first=69 second=115 amount=-1
kerning first=69 second=117 amount=-1
kerning first=69 second=118 amount=-1
kerning first=69 second=119 amount=-1
kerning first=69 second=121 amount=-1
kerning first=69 second=122 amount=-1
kerning first=70 second=84 amount=-2
kerning first=70 second=88 amount=-1
kerning first=70 second=89 amount=-1
kerning first=70 second=97 amount=-1
kerning first=70 second=99 amount=-1
kerning first=70 second=100 amount=-1
kerning first=70 second=101 amount=-1
kerning first=70 second=103 amount=-1
kerning first=70 second=109 amount=-1
kerning first=70 second=110 amount=-1
kerning first=70 second=111 amount=-1
kerning first=70 second=112 amount=-1
kerning first=70 second=113 amount=-1
kerning first=70 second=114 amount=-1
kerning first=70 second=115 amount=-1
kerning first=70 second=117 amount=-1
kerning first=70 second=118 amount=-1
kerning first=70 second=119 amount=-1
kerning first=70 second=121 amount=-1
kerning first=70 second=122 amount=-1
kerning first=71 second=84 amount=-3
kerning first=71 second=88 amount=-1
kerning first=71 second=89 amount=-1
kerning first=71 second=118 amount=-1
kerning first=71 second=120 amount=-1
kerning first=71 second=122 amount=-2
kerning first=72 second=84 amount=-2
kerning first=72 second=88 amount=-1
kerning first=72 second=89 amount=-1
kerning first=72 second=118 amount=-1
kerning first=72 second=122 amount=-1
kerning first=73 second=84 amount=-2
kerning first=73 second=88 amount=-1
kerning first=73 second=89 amount=-1
kerning first=73 second=118 amount=-1
kerning first=73 second=122 amount=-1
kerning first=74 second=84 amount=-2
kerning first=74 second=88 amount=-1
kerning first=74 second=89 amount=-1
kerning first=74 second=118 amount=-1
kerning first=74 second=122 amount=-1
kerning first=75 second=84 amount=-3
kerning first=75 second=88 amount=-2
kerning first=75 second=89 amount=-2
kerning first=75 second=118 amount=-2
kerning first=75 second=120 amount=-1
kerning first=75 second=122 amount=-2
kerning first=76 second=65 amount=-2
kerning first=76 second=66 amount=-2
kerning first=76 second=67 amount=-2
kerning first=76 second=68 amount=-2
kerning first=76 second=69 amount=-2
kerning first=76 second=70 amount=-2
kerning first=76 second=71 amount=-2
kerning first=76 second=72 amount=-2
kerning first=76 second=73 amount=-2
kerning first=76 second=74 amount=-2
kerning first=76 second=75 amount=-2
kerning first=76 second=76 amount=-2
kerning first=76 second=77 amount=-2
kerning first=76 second=78 amount=-2
kerning first=76 second=79 amount=-2
kerning first=76 second=80 amount=-2
kerning first=76 second=81 amount=-2
kerning first=76 second=82 amount=-2
kerning first=76 second=83 amount=-2
kerning first=76 second=84 amount=-5
kerning first=76 second=85 amount=-2
kerning first=76 second=86 amount=-3
kerning first=76 second=87 amount=-2
kerning first=76 second=88 amount=-2
kerning first=76 second=89 amount=-5
kerning first=76 second=90 amount=-2
kerning first=76 second=97 amount=-2
kerning first=76 second=98 amount=-2
kerning first=76 second=99 amount=-2
kerning first=76 second=100 amount=-2
kerning first=76 second=101 amount=-2
kerning first=76 second=102 amount=-2
kerning first=76 second=103 amount=-2
kerning first=76 second=104 amount=-2
kerning first=76 second=105 amount=-2
kerning first=76 second=106 amount=-2
kerning first=76 second=107 amount=-2
kerning first=76 second=108 amount=-2
kerning first=76 second=109 amount=-2
kerning first=76 second=110 amount=-2
kerning first=76 second=111 amount=-2
kerning first=76 second=112 amount=-2
kerning first=76 second=113 amount=-2
kerning first=76 second=114 amount=-2
kerning first=76 second=115 amount=-2
kerning first=76 second=116 amount=-2
kerning first=76 second=117 amount=-2
kerning first=76 second=118 amount=-4
kerning first=76 second=119 amount=-2
kerning first=76 second=121 amount=-2
kerning first=76 second=122 amount=-2
kerning first=77 second=84 amount=-3
kerning first=77 second=88 amount=-1
kerning first=77 second=89 amount=-1
kerning first=77 second=118 amount=-1
kerning first=77 second=120 amount=-1
kerning first=77 second=122 amount=-2
kerning first=78 second=84 amount=-3
kerning first=78 second=88 amount=-1
kerning first=78 second=89 amount=-1
kerning first=78 second=118 amount=-1
kerning first=78 second=120 amount=-1
kerning first=78 second=122 amount=-2
kerning first=79 second=84 amount=-3
kerning first=79 second=88 amount=-1
kerning first=79 second=89 amount=-1
kerning first=79 second=118 amount=-1
kerning first=79 second=120 amount=-1
kerning first=79 second=122 amount=-2
kerning first=80 second=65 amount=-1
kerning first=80 second=67 amount=-1
kerning first=80 second=71 amount=-1
kerning first=80 second=77 amount=-1
kerning first=80 second=78 amount=-1
kerning first=80 second=79 amount=-1
kerning first=80 second=81 amount=-1
kerning first=80 second=83 amount=-1
kerning first=80 second=84 amount=-2
kerning first=80 second=88 amount=-2
kerning first=80 second=89 amount=-1
kerning first=80 second=90 amount=-2
kerning first=80 second=97 amount=-1
kerning first=80 second=99 amount=-1
kerning first=80 second=100 amount=-1
kerning first=80 second=101 amount=-1
kerning first=80 second=103 amount=-1
kerning first=80 second=109 amount=-1
kerning first=80 second=110 amount=-1
kerning first=80 second=111 amount=-1
kerning first=80 second=112 amount=-1
kerning first=80 second=113 amount=-1
kerning first=80 second=114 amount=-1
kerning first=80 second=115 amount=-1
kerning first=80 second=117 amount=-1
kerning first=80 second=118 amount=-1
kerning first=80 second=119 amount=-1
kerning first=80 second=120 amount=-1
kerning first=80 second=121 amount=-1
kerning first=80 second=122 amount=-2
kerning first=81 second=84 amount=-3
kerning first=81 second=88 amount=-1
kerning first=81 second=89 amount=-1
kerning first=81 second=118 amount=-1
kerning first=81 second=120 amount=-1
kerning first=81 second=122 amount=-2
kerning first=82 second=84 amount=-2
kerning first=82 second=88 amount=-2
kerning first=82 second=89 amount=-1
kerning first=82 second=97 amount=-1
kerning first=82 second=99 amount=-1
kerning first=82 second=100 amount=-1
kerning first=82 second=101 amount=-1
kerning first=82 second=103 amount=-1
kerning first=82 second=109 amount=-1
kerning first=82 second=110 amount=-1
kerning first=82 second=111 amount=-1
kerning first=82 second=112 amount=-1
kerning first=82 second=113 amount=-1
kerning first=82 second=114 amount=-1
kerning first=82 second=115 amount=-1
kerning first=82 second=117 amount=-1
kerning first=82 second=118 amount=-1
kerning first=82 second=119 amount=-1
kerning first=82 second=120 amount=-1
kerning first=82 second=121 amount=-1
kerning first=82 second=122 amount=-2
kerning first=83 second=84 amount=-3
kerning first=83 second=88 amount=-1
kerning first=83 second=89 amount=-1
kerning first=83 second=118 amount=-1
kerning first=83 second=120 amount=-1
kerning first=83 second=122 amount=-2
kerning first=84 second=65 amount=-3
kerning first=84 second=66 amount=-2
kerning first=84 second=67 amount=-3
kerning first=84 second=68 amount=-2
kerning first=84 second=69 amount=-2
kerning first=84 second=70 amount=-2
kerning first=84 second=71 amount=-3
kerning first=84 second=72 amount=-2
kerning first=84 second=73 amount=-2
kerning first=84 second=74 amount=-2
kerning first=84 second=75 amount=-2
kerning first=84 second=76 amount=-2
kerning first=84 second=77 amount=-3
kerning first=84 second=78 amount=-3
kerning first=84 second=79 amount=-3
kerning first=84 second=80 amount=-2
kerning first=84 second=81 amount=-3
kerning first=84 second=82 amount=-2
kerning first=84 second=83 amount=-3
kerning first=84 second=85 amount=-2
kerning first=84 second=86 amount=1
kerning first=84 second=87 amount=-2
kerning first=84 second=88 amount=-1
kerning first=84 second=89 amount=-2
kerning first=84 second=90 amount=-2
kerning first=84 second=97 amount=-4
kerning first=84 second=98 amount=-2
kerning first=84 second=99 amount=-4
kerning first=84 second=100 amount=-4
kerning first=84 second=101 amount=-4
kerning first=84 second=102 amount=-2
kerning first=84 second=103 amount=-4
kerning first=84 second=104 amount=-2
kerning first=84 second=105 amount=-2
kerning first=84 second=106 amount=-2
kerning first=84 second=107 amount=-2
kerning first=84 second=108 amount=-2
kerning first=84 second=109 amount=-4
kerning first=84 second=110 amount=-4
kerning first=84 second=111 amount=-4
kerning first=84 second=112 amount=-4
kerning first=84 second=113 amount=-4
kerning first=84 second=114 amount=-4
kerning first=84 second=115 amount=-4
kerning first=84 second=116 amount=-2
kerning first=84 second=117 amount=-3
kerning first=84 second=118 amount=-4
kerning first=84 second=119 amount=-3
kerning first=84 second=120 amount=-3
kerning first=84 second=121 amount=-3
kerning first=84 second=122 amount=-4
kerning first=85 second=84 amount=-2
kerning first=85 second=88 amount=-1
kerning first=85 second=89 amount=-1
kerning first=85 second=118 amount=-1
kerning first=85 second=122 amount=-1
kerning first=86 second=84 amount=1
kerning first=86 second=86 amount=1
kerning first=86 second=97 amount=-1
kerning first=86 second=99 amount=-1
kerning first=86 second=100 amount=-1
kerning first=86 second=101 amount=-1
kerning first=86 second=103 amount=-1
kerning first=86 second=109 amount=-1
kerning first=86 second=110 amount=-1
kerning first=86 second=111 amount=-1
kerning first=86 second=112 amount=-1
kerning first=86 second=113 amount=-1
kerning first=86 second=114 amount=-1
kerning first=86 second=115 amount=-1
kerning first=86 second=117 amount=-1
kerning first=86 second=118 amount=-1
kerning first=86 second=119 amount=-1
kerning first=86 second=120 amount=-1
kerning first=86 second=121 amount=-1
kerning first=86 second=122 amount=-2
kerning first=87 second=84 amount=-2
kerning first=87 second=88 amount=-1
kerning first=87 second=89 amount=-1
kerning first=87 second=118 amount=-1
kerning first=87 second=122 amount=-1
kerning first=88 second=65 amount=-1
kerning first=88 second=66 amount=-1
kerning first=88 second=67 amount=-1
kerning first=88 second=68 amount=-1
kerning first=88 second=69 amount=-1
kerning first=88 second=70 amount=-1
kerning first=88 second=71 amount=-1
kerning first=88 second=72 amount=-1
kerning first=88 second=73 amount=-1
kerning first=88 second=74 amount=-1
kerning first=88 second=75 amount=-1
kerning first=88 second=76 amount=-1
kerning first=88 second=77 amount=-1
kerning first=88 second=78 amount=-1
kerning first=88 second=79 amount=-1
kerning first=88 second=80 amount=-1
kerning first=88 second=81 amount=-1
kerning first=88 second=82 amount=-1
kerning first=88 second=83 amount=-1
kerning first=88 second=84 amount=-1
kerning first=88 second=85 amount=-1
kerning first=88 second=87 amount=-1
kerning first=88 second=88 amount=-2
kerning first=88 second=89 amount=-2
kerning first=88 second=97 amount=-2
kerning first=88 second=99 amount=-2
kerning first=88 second=100 amount=-2
kerning first=88 second=101 amount=-2
kerning first=88 second=103 amount=-2
kerning first=88 second=109 amount=-2
kerning first=88 second=110 amount=-2
kerning first=88 second=111 amount=-2
kerning first=88 second=112 amount=-2
kerning first=88 second=113 amount=-2
kerning first=88 second=114 amount=-2
kerning first=88 second=115 amount=-2
kerning first=88 second=117 amount=-2
kerning first=88 second=118 amount=-2
kerning first=88 second=119 amount=-2
kerning first=88 second=120 amount=-1
kerning first=88 second=121 amount=-2
kerning first=88 second=122 amount=-2
kerning first=89 second=65 amount=-1
kerning first=89 second=66 amount=-1
kerning first=89 second=67 amount=-1
kerning first=89 second=68 amount=-1
kerning first=89 second=69 amount=-1
kerning first=89 second=70 amount=-1
kerning first=89 second=71 amount=-1
kerning first=89 second=72 amount=-1
kerning first=89 second=73 amount=-1
kerning first=89 second=74 amount=-1
kerning first=89 second=75 amount=-1
kerning first=89 second=76 amount=-1
kerning first=89 second=77 amount=-1
kerning first=89 second=78 amount=-1
kerning first=89 second=79 amount=-1
kerning first=89 second=80 amount=-1
kerning first=89 second=81 amount=-1
kerning first=89 second=82 amount=-1
kerning first=89 second=83 amount=-1
kerning first=89 second=84 amount=-2
kerning first=89 second=85 amount=-1
kerning first=89 second=87 amount=-1
kerning first=89 second=88 amount=-2
kerning first=89 second=97 amount=-2
kerning first=89 second=99 amount=-2
kerning first=89 second=100 amount=-2
kerning first=89 second=101 amount=-2
kerning first=89 second=103 amount=-2
kerning first=89 second=109 amount=-2
kerning first=89 second=110 amount=-2
kerning first=89 second=111 amount=-2
kerning first=89 second=112 amount=-2
kerning first=89 second=113 amount=-2
kerning first=89 second=114 amount=-2
kerning first=89 second=115 amount=-2
kerning first=89 second=117 amount=-1
kerning first=89 second=118 amount=-2
kerning first=89 second=119 amount=-1
kerning first=89 second=120 amount=-2
kerning first=89 second=121 amount=-1
kerning first=89 second=122 amount=-2
kerning first=90 second=84 amount=-2
kerning first=90 second=86 amount=-1
kerning first=90 second=88 amount=-2
kerning first=90 second=89 amount=-1
kerning first=90 second=90 amount=-1
kerning first=90 second=97 amount=-2
kerning first=90 second=98 amount=-1
kerning first=90 second=99 amount=-2
kerning first=90 second=100 amount=-2
kerning first=90 second=101 amount=-2
kerning first=90 second=102 amount=-1
kerning first=90 second=103 amount=-2
kerning first=90 second=104 amount=-1
kerning first=90 second=105 amount=-1
kerning first=90 second=106 amount=-1
kerning first=90 second=107 amount=-1
kerning first=90 second=108 amount=-1
kerning first=90 second=109 amount=-2
kerning first=90 second=110 amount=-2
kerning first=90 second=111 amount=-2
kerning first=90 second=112 amount=-2
kerning first=90 second=113 amount=-2
kerning first=90 second=114 amount=-2
kerning first=90 second=115 amount=-2
kerning first=90 second=116 amount=-1
kerning first=90 second=117 amount=-2
kerning first=90 second=118 amount=-2
kerning first=90 second=119 amount=-2
kerning first=90 second=120 amount=-2
kerning first=90 second=121 amount=-2
kerning first=90 second=122 amount=-2
kerning first=97 second=84 amount=-3
kerning first=97 second=86 amount=-1
kerning first=97 second=88 amount=-2
kerning first=97 second=89 amount=-2
kerning first=97 second=90 amount=-2
kerning first=97 second=118 amount=-1
kerning first=97 second=120 amount=-1
kerning first=97 second=122 amount=-1
kerning first=98 second=84 amount=-3
kerning first=98 second=86 amount=-1
kerning first=98 second=88 amount=-2
kerning first=98 second=89 amount=-2
kerning first=98 second=90 amount=-2
kerning first=98 second=118 amount=-1
kerning first=98 second=120 amount=-1
kerning first=98 second=122 amount=-1
kerning first=99 second=84 amount=-3
kerning first=99 second=86 amount=-1
kerning first=99 second=88 amount=-2
kerning first=99 second=89 amount=-2
kerning first=99 second=90 amount=-2
kerning first=99 second=118 amount=-1
kerning first=99 second=120 amount=-1
kerning first=99 second=122 amount=-1
kerning first=101 second=84 amount=-3
kerning first=101 second=86 amount=-1
kerning first=101 second=88 amount=-2
kerning first=101 second=89 amount=-2
kerning first=101 second=90 amount=-2
kerning first=101 second=118 amount=-1
kerning first=101 second=120 amount=-1
kerning first=101 second=122 amount=-1
kerning first=102 second=84 amount=1
kerning first=102 second=86 amount=1
kerning first=102 second=90 amount=-1
kerning first=102 second=97 amount=-1
kerning first=102 second=98 amount=1
kerning first=102 second=99 amount=-1
kerning first=102 second=100 amount=-1
kerning first=102 second=101 amount=-1
kerning first=102 second=102 amount=1
kerning first=102 second=103 amount=-1
kerning first=102 second=104 amount=1
kerning first=102 second=105 amount=1
kerning first=102 second=106 amount=1
kerning first=102 second=107 amount=1
kerning first=102 second=108 amount=1
kerning first=102 second=109 amount=-1
kerning first=102 second=110 amount=-1
kerning first=102 second=111 amount=-1
kerning first=102 second=112 amount=-1
kerning first=102 second=113 amount=-1
kerning first=102 second=114 amount=-1
kerning first=102 second=115 amount=-1
kerning first=102 second=116 amount=1
kerning first=102 second=122 amount=-2
kerning first=103 second=84 amount=-3
kerning first=103 second=86 amount=-1
kerning first=103 second=88 amount=-2
kerning first=103 second=89 amount=-2
kerning first=103 second=90 amount=-2
kerning first=103 second=118 amount=-1
kerning first=103 second=120 amount=-1
kerning first=103 second=122 amount=-1
kerning first=104 second=84 amount=-3
kerning first=104 second=86 amount=-1
kerning first=104 second=88 amount=-2
kerning first=104 second=89 amount=-2
kerning first=104 second=90 amount=-2
kerning first=104 second=118 amount=-1
kerning first=104 second=120 amount=-1
kerning first=104 second=122 amount=-1
kerning first=107 second=84 amount=-3
kerning first=107 second=86 amount=-1
kerning first=107 second=88 amount=-1
kerning first=107 second=89 amount=-2
kerning first=107 second=90 amount=-1
kerning first=107 second=118 amount=-1
kerning first=107 second=120 amount=-1
kerning first=107 second=122 amount=-1
kerning first=109 second=84 amount=-3
kerning first=109 second=86 amount=-1
kerning first=109 second=88 amount=-2
kerning first=109 second=89 amount=-2
kerning first=109 second=90 amount=-2
kerning first=109 second=118 amount=-1
kerning first=109 second=120 amount=-1
kerning first=109 second=122 amount=-1
kerning first=110 second=84 amount=-3
kerning first=110 second=86 amount=-1
kerning first=110 second=88 amount=-2
kerning first=110 second=89 amount=-2
kerning first=110 second=90 amount=-2
kerning first=110 second=118 amount=-1
kerning first=110 second=120 amount=-1
kerning first=110 second=122 amount=-1
kerning first=111 second=84 amount=-3
kerning first=111 second=86 amount=-1
kerning first=111 second=88 amount=-2
kerning first=111 second=89 amount=-2
kerning first=111 second=90 amount=-2
kerning first=111 second=118 amount=-1
kerning first=111 second=120 amount=-1
kerning first=111 second=122 amount=-1
kerning first=112 second=84 amount=-3
kerning first=112 second=86 amount=-1
kerning first=112 second=88 amount=-2
kerning first=112 second=89 amount=-2
kerning first=112 second=90 amount=-2
kerning first=112 second=118 amount=-1
kerning first=112 second=120 amount=-1
kerning first=112 second=122 amount=-1
kerning first=113 second=84 amount=-3
kerning first=113 second=86 amount=-1
kerning first=113 second=88 amount=-2
kerning first=113 second=89 amount=-2
kerning first=113 second=90 amount=-2
kerning first=113 second=118 amount=-1
kerning first=113 second=120 amount=-1
kerning first=113 second=122 amount=-1
kerning first=114 second=84 amount=-3
kerning first=114 second=86 amount=-1
kerning first=114 second=88 amount=-2
kerning first=114 second=89 amount=-2
kerning first=114 second=90 amount=-2
kerning first=114 second=118 amount=-1
kerning first=114 second=120 amount=-1
kerning first=114 second=122 amount=-1
kerning first=115 second=84 amount=-3
kerning first=115 second=86 amount=-1
kerning first=115 second=88 amount=-2
kerning first=115 second=89 amount=-2
kerning first=115 second=90 amount=-2
kerning first=115 second=118 amount=-1
kerning first=115 second=120 amount=-1
kerning first=115 second=122 amount=-1
kerning first=117 second=84 amount=-3
kerning first=117 second=86 amount=-1
kerning first=117 second=88 amount=-1
kerning first=117 second=89 amount=-2
kerning first=117 second=90 amount=-1
kerning first=117 second=118 amount=-1
kerning first=117 second=120 amount=-1
kerning first=117 second=122 amount=-1
kerning first=118 second=65 amount=-1
kerning first=118 second=66 amount=-1
kerning first=118 second=67 amount=-1
kerning first=118 second=68 amount=-1
kerning first=118 second=69 amount=-1
kerning first=118 second=70 amount=-1
kerning first=118 second=71 amount=-1
kerning first=118 second=72 amount=-1
kerning first=118 second=73 amount=-1
kerning first=118 second=74 amount=-1
kerning first=118 second=75 amount=-1
kerning first=118 second=76 amount=-1
kerning first=118 second=77 amount=-1
kerning first=118 second=78 amount=-1
kerning first=118 second=79 amount=-1
kerning first=118 second=80 amount=-1
kerning first=118 second=81 amount=-1
kerning first=118 second=82 amount=-1
kerning first=118 second=83 amount=-1
kerning first=118 second=84 amount=-4
kerning first=118 second=85 amount=-1
kerning first=118 second=86 amount=-1
kerning first=118 second=87 amount=-1
kerning first=118 second=88 amount=-2
kerning first=118 second=89 amount=-2
kerning first=118 second=90 amount=-2
kerning first=118 second=97 amount=-1
kerning first=118 second=98 amount=-1
kerning first=118 second=99 amount=-1
kerning first=118 second=100 amount=-1
kerning first=118 second=101 amount=-1
kerning first=118 second=102 amount=-1
kerning first=118 second=103 amount=-1
kerning first=118 second=104 amount=-1
kerning first=118 second=105 amount=-1
kerning first=118 second=106 amount=-1
kerning first=118 second=107 amount=-1
kerning first=118 second=108 amount=-1
kerning first=118 second=109 amount=-1
kerning first=118 second=110 amount=-1
kerning first=118 second=111 amount=-1
kerning first=118 second=112 amount=-1
kerning first=118 second=113 amount=-1
kerning first=118 second=114 amount=-1
kerning first=118 second=115 amount=-1
kerning first=118 second=116 amount=-1
kerning first=118 second=117 amount=-1
kerning first=118 second=119 amount=-1
kerning first=118 second=121 amount=-1
kerning first=118 second=122 amount=-2
kerning first=119 second=84 amount=-3
kerning first=119 second=86 amount=-1
kerning first=119 second=88 amount=-1
kerning first=119 second=89 amount=-2
kerning first=119 second=90 amount=-1
kerning first=119 second=118 amount=-1
kerning first=119 second=120 amount=-1
kerning first=119 second=122 amount=-1
kerning first=120 second=65 amount=-1
kerning first=120 second=67 amount=-1
kerning first=120 second=71 amount=-1
kerning first=120 second=77 amount=-1
kerning first=120 second=78 amount=-1
kerning first=120 second=79 amount=-1
kerning first=120 second=81 amount=-1
kerning first=120 second=83 amount=-1
kerning first=120 second=84 amount=-3
kerning first=120 second=86 amount=-1
kerning first=120 second=88 amount=-1
kerning first=120 second=89 amount=-2
kerning first=120 second=90 amount=-2
kerning first=120 second=97 amount=-1
kerning first=120 second=99 amount=-1
kerning first=120 second=100 amount=-1
kerning first=120 second=101 amount=-1
kerning first=120 second=103 amount=-1
kerning first=120 second=109 amount=-1
kerning first=120 second=110 amount=-1
kerning first=120 second=111 amount=-1
kerning first=120 second=112 amount=-1
kerning first=120 second=113 amount=-1
kerning first=120 second=114 amount=-1
kerning first=120 second=115 amount=-1
kerning first=120 second=117 amount=-1
kerning first=120 second=119 amount=-1
kerning first=120 second=121 amount=-1
kerning first=120 second=122 amount=-1
kerning first=121 second=84 amount=-3
kerning first=121 second=86 amount=-1
kerning first=121 second=88 amount=-1
kerning first=121 second=89 amount=-2
kerning first=121 second=90 amount=-1
kerning first=121 second=118 amount=-1
kerning first=121 second=120 amount=-1
kerning first=121 second=122 amount=-1
kerning first=122 second=65 amount=-2
kerning first=122 second=66 amount=-1
kerning first=122 second=67 amount=-2
kerning first=122 second=68 amount=-1
kerning first=122 second=69 amount=-1
kerning first=122 second=70 amount=-1
kerning first=122 second=71 amount=-2
kerning first=122 second=72 amount=-1
kerning first=122 second=73 amount=-1
kerning first=122 second=74 amount=-1
kerning first=122 second=75 amount=-1
kerning first=122 second=76 amount=-1
kerning first=122 second=77 amount=-2
kerning first=122 second=78 amount=-2
kerning first=122 second=79 amount=-2
kerning first=122 second=80 amount=-1
kerning first=122 second=81 amount=-2
kerning first=122 second=82 amount=-1
kerning first=122 second=83 amount=-2
kerning first=122 second=84 amount=-4
kerning first=122 second=85 amount=-1
kerning first=122 second=86 amount=-2
kerning first=122 second=87 amount=-1
kerning first=122 second=88 amount=-2
kerning first=122 second=89 amount=-2
kerning first=122 second=90 amount=-2
kerning first=122 second=97 amount=-1
kerning first=122 second=99 amount=-1
kerning first=122 second=100 amount=-1
kerning first=122 second=101 amount=-1
kerning first=122 second=103 amount=-1
kerning first=122 second=109 amount=-1
kerning first=122 second=110 amount=-1
kerning first=122 second=111 amount=-1
kerning first=122 second=112 amount=-1
kerning first=122 second=113 amount=-1
kerning first=122 second=114 amount=-1
kerning first=122 second=115 amount=-1
kerning first=122 second=117 amount=-1
kerning first=122 second=118 amount=-2
kerning first=122 second=119 amount=-1
kerning first=122 second=120 amount=-1
kerning first=122 second=121 amount=-1
kerning first=122 second=122 amount=-2
